{
    "applications": {
        "Blog": {
            "applicationId": "IKWPzETrVQrlUoeOR9zT75dTueoVa6jVjejzbcuG", 
            "masterKey": "DAZ19bx7iv1DxydQFsspOlaKGNrlwo9Hupa0dmfC"
        }, 
        "_default": {
            "link": "Blog"
        }
    }, 
    "global": {
        "parseVersion": "1.3.5"
    }
}